[
    {
    "store": "equis",
    "coming": 0,
    "name": "The Textorcist",
    "image":
    "https://raw.githubusercontent.com/MarcoArioch/bd/main/images/2020/11/thetextorcist.webp",
    "background": "https://raw.githubusercontent.com/MarcoArioch/bd/main/images/2020/11/bg/thetextorcist.jpg", 
    "description":
    "",
    "price": "$5.00",
    "date": "Nov 19 2020",
    "url": "https://bit.ly/2U3Pnyx"
  },
    {
    "store": "equis",
    "coming": 0,
    "name": "Blair Witch",
    "image":
    "https://raw.githubusercontent.com/MarcoArioch/bd/main/images/2020/10/blairwitch.jpg",
    "background": "https://raw.githubusercontent.com/MarcoArioch/bd/main/images/2020/10/blairwitch.jpg", 
    "description":
    "",
    "price": "$5.00",
    "date": "Nov 5 2020",
    "url": "https://bit.ly/3jhlk0t"
  },
    {
    "store": "equis",
    "coming": 0,
    "name": "Ghostbusters:\nThe Video Game\nRemastered",
    "image":
    "https://raw.githubusercontent.com/MarcoArioch/bd/main/images/2020/10/ghostb.webp",
    "background": "https://raw.githubusercontent.com/MarcoArioch/bd/main/images/2020/10/bg/ghostb.jpg", 
    "description":
    "",
    "price": "$5.00",
    "date": "Nov 5 2020",
    "url": "https://bit.ly/2HC5ml3"
  },
{
    "store": "equis",
    "coming": 0,
    "name": "Costume Quest 2",
    "image":
    "https://raw.githubusercontent.com/MarcoArioch/bd/main/images/2020/10/costumequest2.webp",
    "background": "https://raw.githubusercontent.com/MarcoArioch/bd/main/images/2020/10/bg/costumequest2.jpg", 
    "description":
    "",
    "price": "$6.00",
    "date": "Oct 29, 2020",
    "url": "https://bit.ly/37ntbrl"
  },
{
    "store": "equis",
    "coming": 0,
    "name": "Layers of Fear 2",
    "image":
    "https://raw.githubusercontent.com/MarcoArioch/bd/main/images/2020/10/LayersofFear2.webp",
    "background": "https://raw.githubusercontent.com/MarcoArioch/bd/main/images/2020/10/bg/LayersofFear2.jpg", 
    "description":
    "",
    "price": "$12.50",
    "date": "Oct 29, 2020",
    "url": "https://bit.ly/37b2ohy"
  },   
{
    "store": "equis",
    "coming": 0,
    "name": "Amnesia:\nA Machine for Pigs",
    "image":
    "https://raw.githubusercontent.com/MarcoArioch/bd/main/images/2020/10/amnesia.webp",
    "background": "https://raw.githubusercontent.com/MarcoArioch/bd/main/images/2020/10/bg/amnesia.jpg", 
    "description": "",
    "price": "$4.99",
    "date": "Oct 22, 2020",
    "url": "https://bit.ly/EPICAMNESIA"
  }, 
{
    "store": "equis",
    "coming": 0,
    "name": "Kingdom New Lands",
    "image":
    "https://raw.githubusercontent.com/MarcoArioch/bd/main/images/2020/10/kingdomnewlands.PNG",
    "background": "https://raw.githubusercontent.com/MarcoArioch/bd/main/images/2020/10/bg/kingdomnewlands.jpg", 
    "description": "",
    "price": "$4.99",
    "date": "Oct 22, 2020",
    "url": "https://bit.ly/EPICKingdomNewLands"
  },
{
    "store": "equis",
    "coming": 0,
    "name": "ABZU",
    "image":
    "https://raw.githubusercontent.com/MarcoArioch/bd/main/images/Abzu.jpg",
    "background": "https://raw.githubusercontent.com/MarcoArioch/bd/main/images/fondos/Abzu.jpg", 
    "description":
    "",
    "price": "$7.50",
    "date": "Oct 15, 2020",
    "url": "https://bit.ly/33OkWCo"
  },

{
    "store": "equis",
    "coming": 0,
    "name": "Rising Storm 2:\nVietnam",
    "image":
    "https://raw.githubusercontent.com/MarcoArioch/bd/main/images/RisingStorm2Vietnam.jpg",
    "background": "https://raw.githubusercontent.com/MarcoArioch/bd/main/images/fondos/RisingStorm2Vietnam.jpg", 
    "description":
    "",
    "price": "$10.50",
    "date": "Oct 15, 2020",
    "url": "https://bit.ly/33PxfOw"
  },
{
    "store": "equis",
    "coming": 0,
    "name": "Pikuniku",
    "image": "https://raw.githubusercontent.com/MarcoArioch/bd/main/images/pikuniku.jpg",
    "background": "https://raw.githubusercontent.com/MarcoArioch/bd/main/images/fondos/pikuniku.jpg", 
    "description": "",
    "price": "$0.00",
    "date": "Oct 11, 2020",
    "url": "https://bit.ly/3kkYarl"
  },   
{
    "store": "equis",
    "coming": 0,
    "name": "Complete Edition of\nRollerCoaster\nTycoon 3",
    "image":
    "https://raw.githubusercontent.com/MarcoArioch/bd/main/images/RollerCoasterTycoon3CompleteEdition.jpg",
    "background": "https://raw.githubusercontent.com/MarcoArioch/bd/main/images/fondos/RollerCoasterTycoon3CompleteEdition.jpg", 
    "description":
    "",
    "price": "$4.50",
    "date": "Sep 24, 2020",
    "url": "https://bit.ly/34koigJ"
  },
   {
    "store": "equis",
    "coming": 0,
    "name": "Football\nManager 2020",
    "image":
    "https://raw.githubusercontent.com/MarcoArioch/bd/main/images/EGS_FootballManager2020.jpg",
    "background": "https://raw.githubusercontent.com/MarcoArioch/bd/main/images/fondos/EGS_FootballManager2020.jpg", 
    "description":
    "",
    "price": "$35.00",
    "date": "Sep 24, 2020",
    "url": "https://bit.ly/35oDrN4"
  },
    {
    "store": "equis",
    "coming": 0,
    "name": "Watch Dogs 2",
    "image":
    "https://raw.githubusercontent.com/MarcoArioch/bd/main/images/WatchDogs2.jpeg",
    "background": "https://raw.githubusercontent.com/MarcoArioch/bd/main/images/fondos/WatchDogs2.jpg", 
    "description":
    "",
    "price": "$45.00",
    "date": "Sep 24, 2020",
    "url": "https://bit.ly/37up1h1"
  },
    {
    "store": "equis",
    "coming": 0,
    "name": "Stick It To The Man!",
    "image":
    "https://raw.githubusercontent.com/MarcoArioch/bd/main/images/EGS_StickItToTheMan.jpg",
    "background": "https://raw.githubusercontent.com/MarcoArioch/bd/main/images/fondos/EGS_StickItToTheMan.jpg", 
    "description":
    "Hard hat tester, Ray, has a bizarre accident and wakes up with a giant pink spaghetti arm sticking out of his brain!",
    "price": "$3.00",
    "date": "Sep 24, 2020",
    "url": "https://bit.ly/3jpySHC"
  },
  {
    "store": "equis",
    "coming": 0,
    "name": "Railway Empire",
    "image":
    "https://raw.githubusercontent.com/MarcoArioch/bd/main/images/EGS_RailwayEmpire.jpg",
    "background": "https://raw.githubusercontent.com/MarcoArioch/bd/main/images/fondos/EGS_RailwayEmpire.jpg", 
    "description":
    "Da igual",
    "price": "$13.16",
    "date": "Sep 17, 2020",
    "url": "https://bit.ly/2HqvXRm"
   },
    {
    "store": "equis",
    "coming": 0,
    "name": "Where The Water\nTastes Likes Wine",
    "image":
    "https://raw.githubusercontent.com/MarcoArioch/bd/main/images/Where%20The%20WaternTastes%20Likes%20Wine.jpg",
    "background": "https://raw.githubusercontent.com/MarcoArioch/bd/main/images/fondos/Where%20The%20WaternTastes%20Likes%20Wine.jpg", 
    "description":
    "Da igual",
    "price": "$7.61",
    "date": "Sep 17, 2020",
    "url": "https://bit.ly/2TclNq7"
   },
    {
    "store": "equis",
    "coming": 0,
    "name": "Into The Breach",
    "image":
    "https://raw.githubusercontent.com/MarcoArioch/bd/main/images/EGS_SubsetGames_IntotheBreach.jpg",
    "background": "https://raw.githubusercontent.com/MarcoArioch/bd/main/images/fondos/EGS_SubsetGames_IntotheBreach.jpg", 
    "description":
    "Control. powerful mechs from the future to defeat an alien threat. Each attempt to save the world presents a new randomly generated challenge in this turn-based strategy game from the makers of FTL.",
    "price": "$8.08",
    "date": "Sep 10, 2020",
    "url": "https://bit.ly/3kk3MCf"
  },
 
 {
    "store": "equis",
    "coming": 0,
    "name": "Grand Theft Auto V:\nPremium Edition",
    "image":
    "https://raw.githubusercontent.com/MarcoArioch/bd/main/images/GTAV_EGS.jpg",
    "background": "https://raw.githubusercontent.com/MarcoArioch/bd/main/images/fondos/GTAV_EGS.jpg", 
    "description":
    "The Grand Theft Auto V: Premium Edition includes the complete GTAV story, Grand Theft Auto Online and all existing gameplay upgrades and content. ",
    "price": "$19.99",
    "date": "May 21, 2020",
    "url": "https://bit.ly/31wWp3c"
  },
  
     {
    "store": "equis",
    "coming": 0,
    "name": "ARK: Survival Evolved",
    "image":
    "https://raw.githubusercontent.com/MarcoArioch/bd/main/images/EGS_ARKSurvivalEvolved.jpg",
    "background": "https://raw.githubusercontent.com/MarcoArioch/bd/main/images/fondos/EGS_ARKSurvivalEvolved.jpg", 
    "description":
    "Stranded on the shores of a mysterious island, you must learn to survive. Use your cunning to kill or tame the primeval creatures roaming the land, and encounter other players to survive, dominate... and escape! ",
    "price": "$24.99",
    "date": "Jun 14, 2020",
    "url": "https://bit.ly/34jp0ux"
  },
  
       {
    "store": "equis",
    "coming": 0,
    "name": "Hitman",
    "image":
    "https://raw.githubusercontent.com/MarcoArioch/bd/main/images/Hitchman.jpg",
    "background": "https://raw.githubusercontent.com/MarcoArioch/bd/main/images/fondos/Hitchman.jpg", 
    "description":
    "Stranded on the shores of a mysterious island, you must learn to survive. Use your cunning to kill or tame the primeval creatures roaming the land, and encounter other players to survive, dominate... and escape! ",
    "price": "$14.99",
    "date": "Sep 27, 2020",
    "url": "https://bit.ly/31w2AnU"
  },
  
        {
    "store": "equis",
    "coming": 0,
    "name": "Just Cause 4",
    "image":
    "https://raw.githubusercontent.com/MarcoArioch/bd/main/images/JC4..jpg",
    "background": "https://raw.githubusercontent.com/MarcoArioch/bd/main/images/fondos/JC4..jpg", 
    "description":
    "",
    "price": "$14.99",
    "date": "Apr 23, 2020",
    "url": "https://bit.ly/31tQhJ3"
  }

]
